2021-05-13T08:26:16.420489Z 0 [System] [MY-010116] [Server] /usr/sbin/mysqld (mysqld 8.0.21) starting as process 92
2021-05-13T08:26:16.429898Z 0 [Warning] [MY-010159] [Server] Setting lower_case_table_names=2 because file system for /var/lib/mysql/ is case insensitive
2021-05-13T08:26:16.613454Z 1 [System] [MY-013576] [InnoDB] InnoDB initialization has started.
2021-05-13T08:26:21.507348Z 1 [System] [MY-013577] [InnoDB] InnoDB initialization has ended.
2021-05-13T08:26:24.061455Z 0 [System] [MY-011323] [Server] X Plugin ready for connections. Socket: /var/run/mysqld/mysqlx.sock
2021-05-13T08:26:25.810739Z 0 [Warning] [MY-010068] [Server] CA certificate ca.pem is self signed.
2021-05-13T08:26:25.812241Z 0 [System] [MY-013602] [Server] Channel mysql_main configured to support TLS. Encrypted connections are now supported for this channel.
2021-05-13T08:26:26.057612Z 0 [Warning] [MY-011810] [Server] Insecure configuration for --pid-file: Location '/var/run/mysqld' in the path is accessible to all OS users. Consider choosing a different directory.
2021-05-13T08:26:26.500912Z 0 [System] [MY-010931] [Server] /usr/sbin/mysqld: ready for connections. Version: '8.0.21'  socket: '/var/run/mysqld/mysqld.sock'  port: 0  MySQL Community Server - GPL.
2021-05-13T08:26:40.328899Z 11 [System] [MY-013172] [Server] Received SHUTDOWN from user root. Shutting down mysqld (Version: 8.0.21).
2021-05-13T08:27:15.335533Z 0 [System] [MY-010910] [Server] /usr/sbin/mysqld: Shutdown complete (mysqld 8.0.21)  MySQL Community Server - GPL.
